-1.37155048234 
-0.660115593954 
0.0255778514287 
0.569109252911 
0.642418893681 
0.458784774837 
0.591972377959 
0.267782149005 
0.440611674089 
0.4380729696 
0.624100920282 
0.0965296487163 
-0.763212355445 
-0.341589275264 
0.141914078274 
-0.21234392631 
-0.686780238011 
-1.72319633068 
-1.05537262046 
0.657816197534 
1.00411950932 
0.421068195973 
0.286141909183 
0.0501640037249 
-0.32351994164 
-0.186924893984 
0.579780595436 
0.687486675118 
1.4668329829 
1.07457717768 
1.13322985301 
0.800946829641 
1.12728368289 
2.22265541166 
1.55172674302 
0.832436424499 
1.31276500029 
1.62902494572 
0.241615449002 
-0.406866535761 
0.32358069961 
0.74387903449 
1.16026873019 
1.70399735887 
0.884824453914 
0.429695770786 
0.186905003916 
0.0378945183225 
0.270042904975 
0.147601718751 
-1.11411654979 
-0.614246518377 
0.486142541001 
1.25945262554 
1.11115632138 
0.852468774139 
1.36574520044 
0.951932364247 
0.482374405766 
-0.0603771858788 
0.481166317241 
0.469841314754 
0.607695428127 
1.18588423649 
0.317894696652 
-0.0203313807898 
-0.425637267485 
-0.631691953317 
0.472453236469 
1.28904094856 
0.943599160835 
0.713192640092 
0.400347586759 
0.547085172527 
0.610289450385 
0.573611976701 
0.513161523432 
0.627887512529 
0.981200869769 
0.854277024146 
0.755069553638 
0.940350175577 
0.510301989684 
1.01803017992 
1.07783711074 
0.777362484379 
1.09444707605 
1.20904881946 
0.353935708049 
-0.0989834437581 
-0.226229107988 
0.397647417722 
0.837265474008 
1.11129915782 
0.798145435026 
0.208274856486 
0.204914444951 
-0.148814822326 
-0.0487061091231 
0.710724360822 
-1.41727011782 
-0.710176491128 
0.504827423568 
1.38237901381 
1.35844133116 
1.39995265398 
1.68690168713 
1.26379647485 
0.633274709252 
0.0326897186993 
0.113327793316 
0.481342279003 
0.550762683201 
1.66489831158 
1.07979837911 
-0.0192877990543 
-0.153213851297 
0.539890693352 
1.82711611524 
1.35950994322 
0.898532571462 
0.496707445319 
0.720289781183 
1.19377889137 
1.63955076003 
1.29852680653 
0.988382326304 
1.97395355381 
1.7222984624 
0.739630936345 
0.536866483849 
1.04774568647 
0.250652038245 
0.690587733539 
1.18186317339 
1.33766329563 
1.1211841881 
0.505830463235 
0.107954473507 
1.18306078461 
0.822505566948 
0.664463220153 
0.556038141705 
0.595782820858 
0.630390130618 
0.0511747404765 
-0.0926374469907 
0.206335257753 
-0.0172268137701 
0.221994602977 
-1.00276717156 
-0.37464081299 
0.493653799226 
0.766695559778 
0.58915748491 
1.08800466434 
1.51915711335 
1.0885120078 
0.462819303868 
0.374689059792 
0.290402797663 
0.559961862039 
1.16823839953 
1.52133624186 
1.15498540898 
0.188641024971 
0.397674376654 
1.44170671912 
0.965603709388 
0.74513645814 
1.04823084316 
0.602466143565 
-0.27447264011 
0.625744715332 
1.10063011472 
1.07240670163 
1.47512320495 
2.24763165312 
1.70673111975 
1.08419432375 
1.39094499561 
1.23790799791 
0.812921617657 
0.931949335914 
0.920470597095 
1.58563398288 
2.048556577 
0.897250153739 
-0.135924213057 
0.955493160114 
1.44552618038 
0.426058321071 
0.0979761640094 
-0.0810065934115 
0.0486910778466 
0.256348400187 
-0.14883821536 
0.804118933464 
1.22471521586 
0.653902536301 
-0.648073914755 
0.388428746295 
0.365954158692 
0.040960990932 
-0.396980877832 
-0.146071252492 
0.557171117882 
0.425030028553 
0.329559454898 
0.604396048069 
-0.0853618218562 
0.436289017847 
1.05523577768 
0.59733859365 
0.0866279075089 
-0.415310912437 
1.00828442816 
1.18826982287 
0.494424860579 
-0.610351604005 
-0.428121674376 
-0.810938696189 
-1.07127253036 
-0.353519681611 
0.12255125905 
0.896003396759 
1.2437207277 
1.97896862876 
1.35195269293 
1.17987954178 
1.82042226705 
1.42964549276 
0.726507642426 
1.17352146944 
0.767933586059 
1.21759057133 
1.81132231688 
1.56148730385 
0.81754872443 
1.78843354916 
2.07325855851 
1.54633777944 
0.479663197575 
0.279954462402 
0.390661727937 
0.263948359961 
0.739588711367 
1.9609986374 
1.74548820384 
0.704155157401 
0.424081613537 
0.109958366267 
0.107659353809 
0.23292220991 
-0.133877873809 
-0.74049478351 
-0.329749838289 
-0.608841319462 
-0.128222282913 
-0.0853811796825 
-0.338032657555 
0.0556932761428 
0.925131508828 
0.499657483768 
-0.554081472401 
-0.812370906245 
-0.284649379195 
0.20061918927 
-0.042982346534 
-0.844019332043 
-1.45215036878 
-2.15161194357 
-2.30578287296 
-1.63308520082 
-0.443677135287 
0.275009824209 
0.669422612402 
1.52778527822 
1.8643999921 
1.82081854965 
1.09815586725 
0.67956697046 
0.540431068639 
0.432261684001 
0.273499611902 
0.850053692872 
1.55703972518 
2.270684695 
2.63389122276 
2.96647566218 
2.46611289489 
1.76751891775 
1.16413837616 
0.822218957546 
0.450768114297 
0.825564805306 
1.27972847524 
2.41731548717 
2.2032895453 
1.16339427506 
0.205573093448 
0.170610923162 
0.485525405551 
0.525961432071 
0.290033010773 
-0.525093768312 
-0.597918278237 
-0.831668280467 
-0.220881483063 
-0.0652837317804 
-0.18957193414 
0.366505128981 
0.405698258971 
0.226631919899 
-0.223916599556 
-0.517858094989 
-0.539160966004 
-0.182889066325 
0.0119956949601 
-0.0812495898439 
-1.07350451276 
-2.3130464579 
-2.73329378711 
-2.40600530052 
-0.958521634285 
0.35215197447 
0.302893998914 
0.195319663995 
1.35485542115 
1.86509758474 
1.26771844381 
0.563675051068 
0.491635605381 
0.475027210119 
-0.00824702996424 
0.787667080354 
1.28421819965 
2.18293241086 
3.30457774962 
3.38884421919 
2.61079369766 
1.26332192438 
1.36888233277 
0.549366018996 
0.31909303894 
0.747224107084 
1.28789936572 
2.36638535057 
2.66556728246 
1.22303966392 
-0.175436769713 
-0.221306441634 
0.738473081694 
0.878533479628 
1.12489874914 
0.65527635573 
-0.487568974048 
-0.767259539068 
0.113125795737 
0.831128672863 
0.324891092925 
1.24732100278 
0.525209187542 
0.122350436776 
-0.582518448154 
-0.573837092548 
-0.500230445218 
-0.0564942758686 
-0.320677809459 
0.0538679487887 
0.0378748091174 
-1.39808262765 
-1.99541093676 
-1.67082314968 
-0.776972317921 
-0.354860129916 
-0.481409343776 
-0.614857403679 
0.607418178289 
1.70258359996 
1.72076057623 
1.13805915867 
1.60747406159 
1.08882074436 
-0.0975594074757 
0.259512610725 
0.461357811824 
1.30378841057 
2.1089531665 
2.42487075648 
2.06393812313 
1.1229827402 
0.383988177137 
0.662194442512 
0.735238894836 
1.21486359962 
1.30938763329 
1.83056032591 
1.88707745052 
1.50181973456 
-0.31087373384 
-0.743618111888 
0.214833590424 
1.00751787442 
1.71371217753 
1.45661581862 
0.773331203061 
-0.549715524081 
-0.516199627896 
0.880385413 
1.24642084792 
1.35350707615 
0.578434518862 
-0.452472475994 
-0.0713210259373 
-0.234669636612 
0.0732051129953 
0.781913558277 
0.266778423995 
0.505241415803 
0.830500106487 
0.125968527495 
-1.102557717 
-0.946084757776 
-0.292142079622 
-0.150139668247 
-0.278708837513 
-0.195018701706 
0.0647526220712 
0.455802669899 
0.653932107996 
1.06237551408 
1.31047203535 
0.617908489098 
0.0268522833231 
-0.476855547008 
-0.814793800188 
-0.295350759818 
0.591862824878 
1.76336897527 
1.79267465793 
0.682311372289 
-0.165581414343 
-0.136619032145 
-0.0747662024696 
0.269769245509 
1.59037318214 
1.92652693611 
1.97445703248 
1.1667292374 
-1.19962737618 
-1.03143353977 
-0.290112758252 
1.17584638046 
1.80466828714 
0.872799794102 
0.139519827574 
-0.898684652866 
-0.382383417035 
1.10597830414 
1.0448043983 
0.872612864953 
0.735469047275 
-0.48836554113 
-0.192843423347 
0.503754134311 
0.0867049325488 
0.445698820723 
0.368315445581 
0.68926026107 
0.944294821603 
0.703381075384 
-0.0636714371636 
-0.155937103321 
0.171643470334 
0.683521180051 
0.884100514927 
0.870270000916 
-0.318728274026 
-0.908283038444 
-0.405181485541 
0.172464142717 
0.575043562305 
0.076742563787 
-0.452280662296 
-0.835104578583 
-0.81268896796 
-0.981233532575 
-0.36964357651 
0.185258008317 
0.258796757917 
-0.259447068581 
0.500848808255 
0.49833105163 
-0.0285050309422 
0.603602276604 
1.47560184749 
2.22865117522 
2.02298214422 
1.94337837268 
-0.70772082968 
-1.06095251539 
-0.193399567574 
0.366662845849 
0.634446272878 
0.231435400715 
-0.608966456493 
-0.496467642016 
0.309511220469 
0.711639820949 
0.875073810464 
0.953481979685 
0.707005686368 
0.507357135951 
0.497740496805 
1.6041815383 
1.42928736244 
1.05799568428 
0.684700206137 
1.1842629723 
1.26211980186 
0.349822273631 
0.616124511667 
0.100157816902 
0.168460797481 
1.23128077884 
1.63062073163 
1.41543780928 
-0.0873737818341 
-0.998688610182 
-0.614247432161 
-0.19431084186 
0.508371844823 
-0.943762557602 
-1.23316693616 
-1.45518923108 
-1.23119242239 
-0.725148496069 
-0.538035778458 
-0.993857706054 
-1.03637993011 
-0.48127989073 
-0.325879721242 
0.41922983771 
0.859022265518 
0.905025749725 
1.146447197 
1.77633389071 
1.9470066609 
1.72329848989 
-0.961886386905 
-0.660461580281 
-0.352652891628 
-0.417659228894 
0.15016305598 
-0.0317599270975 
-1.20270986068 
-1.15551739361 
-0.81305436342 
-0.327614877611 
0.492120488444 
0.944613246284 
0.788993088752 
0.626143451364 
0.692007193966 
1.6135262317 
2.24191288203 
1.64056838123 
0.763088264856 
1.12623908397 
1.18981876506 
1.20795997435 
1.08199834926 
-0.613569826523 
-1.10355026607 
0.476275731359 
1.58617691454 
1.53132621671 
0.236588023186 
-0.0807170732633 
0.413097192025 
0.581392800261 
-0.313350017211 
-2.06596244055 
-2.23475448218 
-2.22945152799 
-1.47074535234 
-0.14055632869 
-0.388029751299 
-1.62682739307 
-1.39373806018 
-0.38981904522 
-0.119434463849 
0.279698955748 
0.897421564955 
0.420891959185 
0.366463118951 
0.700380475129 
1.01759599803 
1.0345582468 
0.235864870945 
-0.306555318033 
-0.298915422627 
-0.613435061433 
-0.458978254578 
-0.669519511612 
-1.1171497812 
-0.838162476359 
-0.956679399557 
0.111798365344 
0.670034370025 
1.86355546704 
1.51219477327 
0.712462048948 
0.404530125863 
1.43598620269 
1.99154986249 
1.51569473794 
0.84494112188 
1.15321811904 
1.59580652019 
1.36141621614 
0.360372922882 
-1.61479986728 
-1.69411067414 
-0.242925592975 
0.702174676958 
0.957256281724 
0.626064329207 
0.305979890776 
0.731595611384 
0.906096735297 
-0.597868735268 
-1.81689661142 
-2.71958911532 
-2.64452620891 
-1.33573364246 
-0.188631162139 
0.60428695281 
-0.062547327263 
-0.494545769519 
-0.359978772892 
-0.648028011866 
-0.45794014535 
-0.0201217901008 
-0.33921533703 
-0.664633070982 
-0.25508300725 
0.466938965066 
0.124139744716 
0.703919488904 
0.339112645155 
-0.0911945488455 
-0.941481484595 
-1.08232234019 
-1.55540005623 
-1.31808322664 
-0.563442631242 
-0.650652359985 
0.127760336082 
1.2199969365 
2.75905912633 
2.86912443734 
1.24294257264 
0.0773003530705 
0.886989303293 
1.25961683934 
1.15712416932 
1.11372633996 
0.767506498395 
1.38782861544 
1.01270716576 
-0.0641151233698 
-0.761297124412 
-0.621076544955 
-0.278640451963 
-0.506451416481 
0.196888667821 
0.142019983261 
-0.499780042933 
-0.0955318058021 
0.48057403555 
-0.017967855529 
-1.14742154149 
-2.36271533491 
-2.79415400957 
-1.48108393656 
0.373437224369 
1.78946374068 
1.02524567594 
0.217928264093 
-0.590379348677 
-1.26909484564 
-1.91527432058 
-1.49806250217 
-0.790942360624 
-0.571884449683 
-0.192927307462 
-0.531059347968 
-0.237142993866 
0.397961173836 
0.501090999083 
-0.180077621555 
-0.849045056945 
-1.30005842865 
-2.47180818194 
-1.76947305816 
-0.524131760274 
-0.563202793816 
0.0642099115097 
1.30076109984 
2.74900038862 
3.04296418858 
1.35827363337 
0.475357850976 
0.782153207765 
0.857398393836 
1.39319614427 
1.17018535628 
1.01656398599 
1.4850919676 
1.23405432323 
0.526382081788 
0.233264271693 
0.178664731204 
-0.358542124118 
-0.860530302514 
-1.08417385117 
-0.711567295028 
-1.26178397801 
-0.407651067684 
0.381739739463 
-0.0135012422444 
-1.10553499597 
-1.71526349033 
-1.909787252 
-0.918363531141 
0.647240831006 
2.10649548815 
2.19603731647 
0.440634922381 
-0.607744415305 
-1.54067287092 
-1.38667127251 
-1.50994177076 
-0.963896972632 
-0.649205682923 
-0.029394304795 
0.00723574417689 
-0.0607074314116 
0.360274470755 
0.443372453544 
0.192948586353 
-0.592403393635 
-1.38668601378 
-1.80940287308 
-1.08381928892 
0.26215838851 
0.699045122541 
0.878069431524 
1.36279727684 
2.48665966581 
2.35246562075 
1.24459958018 
1.01357625249 
0.996083018089 
1.02810629689 
1.37279727097 
1.34288861163 
1.3110458292 
0.863081446546 
0.933417813949 
0.148112931093 
0.134014159847 
-0.225960961316 
-0.285734737727 
-0.912175518252 
-1.48384205987 
-2.00311032279 
-1.87464326133 
-0.881199330161 
0.00574983975471 
-0.134467460233 
-0.921991080033 
-1.15209475955 
-1.39155782458 
-0.51594183563 
0.4206183203 
2.2206726399 
2.55637307188 
1.90437124352 
0.890922358953 
-0.00763457770855 
-0.215874169411 
-0.771999603964 
-1.04080429424 
-0.755333397381 
-0.201093573585 
0.286685038878 
0.215135006068 
0.62985943942 
1.00359712511 
0.5877723458 
-0.24639537206 
-1.16841657761 
-1.04522700653 
-0.726512084264 
0.793877736501 
0.724489568073 
0.139216345482 
0.788012391295 
1.48311770088 
1.71124995421 
1.12904818707 
1.87846317864 
1.81803351136 
0.73517824043 
0.454952754536 
1.40838073179 
1.8622933428 
1.50321663206 
0.40071459641 
-0.7849010265 
-0.148981049401 
-0.75804863148 
-1.15582119619 
-0.575427055602 
-1.20226871055 
-2.15804334928 
-2.16497556357 
-1.35157146647 
0.263648645323 
0.427623524794 
-0.440649609593 
-1.37774920776 
-1.28724621022 
-0.729362920645 
0.220992784818 
2.22468791411 
2.84154125799 
2.4495933532 
1.98076535627 
0.850772158063 
0.709838069761 
0.68503727985 
-0.42017539621 
-1.10238893241 
-0.633333530967 
-0.0921538068477 
-0.610972910686 
0.742436098795 
0.355306073678 
-0.384311712198 
-0.946436846033 
-1.65115614805 
-1.04343463278 
-1.17774358185 
-0.815445421318 
-0.434217040373 
0.27315642899 
0.725442912749 
0.293777482908 
0.316372659597 
0.989188327737 
1.88410647347 
1.35977196105 
0.427980511436 
0.148727774735 
0.738148902227 
1.59772887661 
1.90024860455 
1.67678509666 
0.108290154787 
-0.768180633469 
-1.57314907033 
-1.98381726943 
-1.50846979731 
-1.54971793426 
-1.88903200547 
-1.74960610264 
-1.25651169701 
0.246285417633 
0.384065202494 
-0.868731095646 
-1.50784065782 
-0.917789555048 
-0.408939130277 
0.524923797144 
2.01901549691 
2.64212481035 
1.6327928336 
1.33909810302 
1.22552911249 
1.06243935241 
0.980770021443 
0.0901019977831 
-1.11745631699 
-1.10273173379 
-1.31581281422 
-1.56071795308 
0.971179254418 
-0.157201915923 
-0.998000093041 
-1.50323963279 
-1.34436921439 
-0.441287817226 
-0.435542953332 
-0.513926632719 
0.197505988571 
0.754230881079 
0.702125290209 
-0.196775159405 
-0.819931868169 
-0.140694643404 
-0.134182669634 
-0.228942526671 
-1.33475404305 
-1.55545125078 
-0.578250435598 
0.292355944068 
0.997760075882 
1.75909781292 
0.987641146647 
-0.770521941208 
-2.08954745831 
-2.95732783488 
-2.02516485002 
-1.88207924212 
-1.06785111212 
-0.603542089585 
-0.321253580844 
0.319850306003 
0.476980612719 
-1.314057473 
-1.95166334672 
-0.626340769521 
-0.233681513979 
0.47936970565 
1.48626881888 
1.74480011436 
1.17126253181 
1.28742119363 
1.23188281916 
0.870442941908 
0.788965034971 
1.03901323808 
-0.381737853621 
-1.36891518107 
-1.93334732308 
-2.01915665538 
-0.751035727925 
-0.812829120862 
-0.63797536123 
-1.14461570822 
-0.979106187193 
-0.245581849625 
-0.111115483391 
-0.444257489843 
0.596796273954 
1.03856763611 
1.42503439235 
0.218538014254 
-1.05581268383 
-0.566604207402 
-0.654386990774 
-0.949371560454 
-1.61494252132 
-1.91133859399 
-1.47584545436 
-0.59617215664 
0.0757288683993 
0.923571086701 
0.583561126384 
-0.649742268249 
-2.08546431001 
-2.8525492089 
-1.8513847535 
-1.19253065327 
-0.536882984988 
0.0839255226196 
-0.175136761106 
0.100209979051 
0.231477438421 
-1.40518843178 
-1.81445687952 
-0.782296144274 
0.443881327969 
0.884208330599 
1.24520740724 
1.30270656074 
1.16897386478 
0.709181415233 
0.930070070512 
0.506829919253 
0.957151579169 
1.93130895652 
0.379870649964 
-1.26628153239 
-2.47609313966 
-2.55812929535 
-2.67219748456 
-2.30113536582 
-1.61137722947 
-1.40823138016 
-1.00464907404 
-0.997215982926 
-0.530878487282 
-0.425789392949 
0.433846715753 
1.16549326552 
1.49307418111 
0.816309272459 
0.154105399085 
-0.188597953408 
-0.606489682103 
-0.27962026092 
-0.649207879627 
-0.813620867584 
-0.437596693478 
-0.310242961058 
-0.291861908744 
0.234984752469 
1.18346540166 
0.270805277045 
-1.42598568308 
-1.60791452839 
-1.23066302703 
-0.543585979038 
0.15555071127 
0.172694761141 
-0.0886586651631 
-0.508874792686 
-0.879652353023 
-1.3876309564 
-1.48908926938 
-0.83992315589 
0.692323663011 
1.11755178034 
0.714201436915 
1.16178552901 
0.566204018724 
0.1618520754 
0.166499230454 
0.153803719154 
0.783967195043 
1.39083980687 
0.899802612119 
-0.251797707073 
-1.84963004033 
-2.55244619334 
-1.63918882991 
-2.27892762887 
-2.19712762221 
-1.73060388299 
-0.860319097067 
-0.304189596399 
-0.16856330707 
-0.129115077182 
0.557104510093 
1.22092818044 
1.50333030782 
1.38116245281 
0.795471056483 
0.310951453523 
0.484201401246 
0.256207047193 
-0.286380700613 
-0.247098784743 
0.183326653584 
0.418632061532 
-0.128460445465 
-0.572363803169 
0.504882864003 
0.168049554104 
-0.423805315594 
-0.542266814837 
-0.722216313441 
-0.223076423164 
0.55861590836 
0.510474317683 
0.0109126621775 
-0.663741122852 
-1.23052357135 
-1.20705892447 
-1.19084510212 
-1.09606786615 
0.489654632749 
1.38839785115 
1.44658396841 
1.12593371203 
0.172448809918 
-0.520593013597 
-0.393288577765 
-0.106612793828 
0.224069944276 
0.679779233959 
0.846352338749 
0.153228319459 
-1.00712552533 
-2.05529149981 
-0.466304837028 
-0.925489621029 
-1.21065593545 
-1.23748329453 
0.0108607388315 
1.03591160241 
1.49075191434 
0.720156966871 
0.804763660948 
0.514803936811 
0.723063510013 
1.11355439027 
0.694743318233 
0.42557894583 
0.31544423177 
-0.273239882887 
-0.816728522589 
-0.859324815806 
0.125093404432 
1.26889877199 
0.509776893012 
-0.445607659253 
-0.418321645814 
0.0859117957083 
0.202012593865 
-0.875083138941 
-0.983107132768 
-0.833722620964 
-0.357154323111 
0.929984592258 
0.972973069692 
0.164163620063 
-0.510509678469 
-0.178903827616 
-0.509334996836 
-0.0259952575025 
0.252161190933 
0.482609209379 
1.41862351277 
0.774863609185 
0.333710823433 
0.0473939058307 
0.132006268177 
0.267392991214 
0.167666341861 
-0.173280128413 
0.795106934668 
0.433356791235 
-0.510176065852 
-1.29651473537 
-0.199333088914 
-0.519406382814 
-0.5361870786 
-0.881765483179 
0.172692209859 
1.42475320667 
2.13656039453 
2.03896207657 
1.1013937527 
0.118566145903 
0.0376917609725 
0.126243185941 
-0.373262673821 
-0.173749784131 
-0.585742374903 
-0.734622471735 
-1.67023276449 
-0.805325013748 
0.178748420273 
1.68071581642 
1.39905725697 
0.156207627244 
-0.0128482100031 
0.561122404864 
0.185926803683 
-0.121973569582 
-0.548217721548 
-1.08130312165 
-0.510653761418 
0.624706115712 
0.891977715805 
0.743295248984 
0.918572496966 
0.494984048139 
-0.649049404942 
-0.504324420037 
-0.376677616158 
-0.262340112494 
0.317768804748 
0.364015514472 
0.0260724754595 
0.289017259093 
0.602757347751 
0.398313152201 
-0.258196135566 
-0.067108437534 
0.803292712334 
0.656774851126 
-0.480697321003 
-0.758966605468 
0.641009216606 
0.448527400558 
0.314089634776 
-0.272961094092 
0.405299758943 
1.76815766181 
2.25855156546 
1.8971237889 
0.784837903619 
0.300163915278 
0.0542617309166 
-0.668532793187 
-1.18862441928 
-0.615728892162 
-0.748450980859 
-0.916587016314 
-0.780426202406 
0.0279108475362 
0.673238323427 
1.22038630286 
0.767784485079 
0.249187855933 
0.341934091183 
0.568338406347 
0.275725171917 
-0.0580963239792 
-0.0539681234141 
-0.959398652311 
0.270912843717 
1.01737389275 
0.450811478253 
1.05887594576 
0.995763974347 
1.32467865243 
0.125658824022 
-0.837947317336 
-0.515520873939 
-0.601126581029 
0.444870086698 
1.10602010408 
0.784375732724 
0.588798318686 
0.79161672367 
-0.05425452338 
-0.276905910918 
0.306796967601 
1.15639743822 
1.30677379326 
-0.0671236779822 
-0.64133932955 
1.98094593581 
1.58386277665 
0.850851843968 
0.0491548641017 
0.157026088429 
0.715447564204 
1.37855156805 
0.682102031689 
0.478531296514 
0.476723143734 
-0.324773372304 
-1.61435981902 
-1.09450503033 
-0.713841981174 
-0.607223848599 
-0.980608345266 
-0.0758430047936 
1.01139631715 
1.13294210191 
0.595341748269 
0.120952288526 
0.00260732372585 
0.476285548817 
0.52756741553 
-0.199115898899 
-0.645296620309 
-0.170421621843 
-0.929402100523 
-0.471631809548 
0.403685883493 
1.10938376325 
1.482510848 
1.42317895989 
1.61403208961 
1.02660715944 
-0.391023796616 
0.221021859561 
0.820173482356 
0.991701520189 
1.2819426665 
1.69348973415 
1.80406589928 
1.08141764709 
0.306333157288 
0.626892448608 
1.04453332392 
1.03976382167 
0.762552635699 
0.275376911272 
-0.335520852289 
2.68737303098 
2.01432950864 
1.00560943651 
0.456193083384 
-0.175884131736 
-0.0658471090551 
0.466179816985 
0.316648079558 
0.335724097739 
-0.0315037061838 
-0.917190193722 
-1.31237918025 
-0.321874578175 
0.0118735414471 
-0.350516375292 
-0.524611384769 
0.165296295208 
0.816096867725 
0.971533674858 
0.83743670482 
0.612167647202 
-0.0643293063203 
0.0134933742435 
-0.28070441852 
0.0117497447875 
-0.507030731044 
-0.453525103088 
-0.294995595592 
-0.60860407391 
0.641107464643 
2.42473985299 
2.4739309788 
1.97509982643 
1.77026280768 
1.37867616602 
0.116254087917 
-0.0515173896177 
0.678085501511 
0.414075276416 
0.338424221367 
1.60266260955 
1.9535256687 
1.33298280389 
0.978851362227 
1.27878920308 
0.84260292617 
0.567415163524 
0.0624718857491 
-0.172427709412 
0.126987947379 
1.6974331086 
1.37302273912 
0.18990680466 
-0.0865455265286 
-0.382174144805 
-0.480372103095 
-0.0912255578986 
0.0592485185509 
0.390551439975 
1.18640629876 
1.18589861118 
1.27486565733 
0.804018608311 
0.347329165295 
0.111836890075 
-0.151899540631 
0.0649970208802 
0.702209568356 
0.120515014223 
0.292618020163 
0.60744280029 
0.438770106147 
-0.0456305239521 
0.0676711830855 
0.372028096814 
-0.254082509253 
-0.431171582819 
-0.0515165181911 
0.329852626341 
0.63147386771 
2.44288728885 
3.35470245637 
2.62194856345 
1.46550385011 
1.08278281841 
-0.0674574005239 
-0.855025475985 
-0.558108491624 
0.00518428569488 
0.170481917079 
1.14629955949 
1.86739494828 
1.42914737791 
0.970121416316 
0.999952459258 
0.800090211005 
0.558214307484 
0.0990015157415 
-0.973101781689 
-0.627530994586 
0.988705698254 
0.178240330992 
-0.136902936143 
-0.205957089987 
-0.44476644327 
-0.452094372893 
0.0274301010367 
0.159448199512 
1.18707994914 
1.87238739434 
2.26118642912 
1.97376427745 
1.61959551254 
0.260578030309 
-0.22484706822 
-1.01051188456 
-1.04066372066 
-0.176234499944 
-0.548119994257 
-0.214074910444 
0.809708855696 
1.19986338658 
0.863688849409 
-0.118404830913 
-0.101519674416 
-0.412485485682 
-0.272395314344 
0.354197820441 
1.31361612606 
1.62855914924 
2.43751642035 
3.18229461954 
2.05942409752 
1.39900471953 
0.20486734065 
-0.0570715968642 
-0.144069107983 
-0.650368012909 
-0.162529170096 
0.460856400004 
1.18804797959 
1.45839459005 
1.35257350377 
0.864613304897 
0.949956387963 
0.36744227462 
0.0289831926938 
-0.191471080719 
-1.03130028117 
-0.475286447267 
0.226480382074 
-0.422775709535 
-0.363482357134 
-0.785922615006 
-0.802016784001 
-0.737229247885 
0.189385686336 
1.01249489082 
1.64073570328 
1.88695703779 
1.96924614112 
1.72548066197 
1.28804236238 
0.449828935803 
-0.905778289962 
-1.3913326399 
-1.58726752352 
-2.25590256856 
-1.89622514696 
-0.313702634305 
1.01403644414 
0.896729506809 
0.593836427913 
-0.41897058163 
-0.519538845749 
0.148503070859 
0.496230442653 
1.16998379225 
1.8700151914 
1.81092689857 
2.30360815905 
1.97175117712 
1.83448834548 
1.56984430125 
0.255604301924 
-0.0535523378735 
0.434715223431 
-0.260070646477 
0.0922991381529 
1.42705619159 
1.20015015304 
0.880173841509 
0.812147527237 
0.362779196362 
0.0607108538973 
-0.55447272094 
-0.305618553788 
-0.116593245927 
-0.109849845605 
0.634769992021 
-0.895247401862 
-0.996193260713 
-0.681012775914 
-1.1627681764 
-1.09639951256 
-0.874494064049 
-0.125356056199 
0.576864647724 
1.01750546358 
1.61300891814 
1.80747875902 
0.935663596997 
0.821552041535 
-0.0254367904571 
-0.798111806895 
-1.10716828519 
-1.48738940575 
-1.60900841181 
-0.88603959561 
-0.231832048908 
1.03708447508 
0.907451584644 
-0.0202036441509 
-1.09997536179 
-1.15725605032 
-0.889959915482 
0.394209801132 
1.32224744297 
1.61106413946 
1.13605234868 
1.11208156152 
1.18364031558 
1.12205969581 
1.31691495428 
1.17859056046 
0.638390367874 
1.18767252757 
0.955323891863 
1.1109381468 
1.40426262342 
1.5519467215 
0.562402432939 
-0.0331369112626 
0.0189061130636 
-0.469736061514 
-1.15234745388 
-0.418897391565 
0.229208178329 
0.480457753706 
1.73196835899 
-0.829494768222 
-1.45847639467 
-1.68123788261 
-1.23336102832 
-0.865974532484 
-0.719946986926 
-0.416032408024 
0.451092694831 
0.7802907526 
0.540224510124 
0.696428615216 
0.749172410608 
0.826097339248 
0.229900605962 
-0.891125347276 
-1.00515263963 
-1.371092794 
-1.19104890698 
-0.313693986773 
0.826100924558 
1.36993465163 
1.03378556151 
0.157395349895 
-0.905600465774 
-1.09425310006 
-0.235125581636 
0.14875952385 
0.438484515666 
0.428868281786 
0.0474543491743 
0.0455383579248 
0.2049136568 
-0.193000931461 
0.648588818771 
1.30569256537 
0.991550225476 
1.52653533272 
2.18405884737 
2.15102920281 
2.32036014046 
1.5317548889 
0.292092862041 
-0.0997321980486 
0.2320681251 
-0.339002986775 
-1.32325170709 
-1.18295356631 
0.530712434856 
1.00376005086 
2.23271012993 
-1.35056906719 
-1.62845195293 
-1.99934896366 
-1.58006955349 
-0.553586719785 
0.259970348908 
0.748052521812 
0.524496509425 
0.0953095994543 
0.117554279172 
-0.289875922362 
0.202021199512 
0.0142858682071 
0.231058005144 
-0.165760011443 
-0.536487138245 
-0.882742261721 
-0.943252447815 
0.102622523036 
0.847479795077 
1.22266519798 
0.144766775488 
0.235830554946 
0.428040803683 
0.786744497001 
0.83179385923 
0.176512072492 
-0.393150766343 
-0.769248372918 
-1.29209002742 
-0.774423922308 
-0.422138419818 
-0.719656592057 
0.374861708805 
1.37578577739 
1.64564074953 
2.06616430813 
2.3705852263 
2.77098661039 
2.19978786423 
0.863473430668 
-0.367739320804 
0.124375360592 
0.400276370401 
0.520385885437 
-0.298559517793 
-0.519050692055 
-0.0619216296338 
0.805747831823 
1.83818281626 
-1.38455444078 
-1.6319584827 
-1.86344635987 
-1.29103486597 
-0.212895014405 
0.908795334625 
1.22417357721 
0.885747029428 
0.409000765726 
0.348501751747 
-0.0491619538723 
0.415571143697 
0.163323485747 
0.624034260192 
0.491092317873 
-0.205274196366 
-0.620002484494 
-0.753035630921 
-0.209596320416 
0.571082599235 
1.11425369624 
0.269211349378 
0.343856190464 
1.40827544244 
1.94015410544 
1.65477406303 
0.454623645043 
-0.58319662733 
-1.00870677764 
-1.96433886891 
-1.41317996937 
-1.18139704441 
-1.61170394882 
-0.31047495395 
0.80650496064 
1.15023067824 
1.19575525417 
1.45299868541 
2.2450226009 
1.89298326635 
0.490474173475 
-0.471560904767 
-0.268775281856 
0.344539059671 
0.48971105962 
0.72744059397 
0.32584711945 
0.00135685252991 
0.320502999653 
0.408967221233 
-0.635826237226 
-1.18722551255 
-1.7589781223 
-1.04123114717 
-0.551803610374 
0.189678279123 
0.792082003428 
0.870857704155 
0.166874127454 
-0.240883367366 
-0.0797959455813 
-0.0226979606782 
0.0384095321108 
0.327658106789 
0.964250138201 
0.205454449639 
-0.529358687424 
-0.567506921382 
0.0364472399603 
0.341133068947 
-0.432768754387 
-0.454467271971 
0.583475142731 
1.10825551364 
1.52886579961 
0.607476052591 
-0.0118038137097 
-0.10608653889 
-0.846721997365 
-1.9858285528 
-1.54694422039 
-1.51831616765 
-2.37268105477 
-0.645949716039 
0.611160826853 
0.81522014042 
0.726243445488 
0.552366409617 
1.04614269313 
1.15804105792 
0.275975943643 
0.126589059441 
-0.279498494754 
0.0576532564557 
0.900548978324 
1.07778674653 
1.45232836109 
0.857447730965 
0.10507966831 
-0.174009811208 
-0.765040459346 
-1.20775346569 
-1.24748074387 
-1.22860888921 
-0.657683476267 
-0.43643232682 
-0.37511563724 
-0.340140050495 
-0.416779495611 
-1.35721532205 
-1.53709807019 
-0.374567510955 
-0.18128252894 
-0.145305848291 
0.743039321375 
0.331254268319 
-0.223862144029 
-0.0471226828377 
-0.341432447572 
-0.811047600603 
-0.956778125373 
-0.23370513579 
1.39891805041 
1.42555109558 
0.835924253495 
-0.202249360644 
-0.151095767969 
-0.0180667860784 
-0.619326036213 
-1.30380833726 
-1.07767721315 
-1.02851912048 
-1.49999710662 
0.106516261906 
0.34128261103 
-0.112226365415 
0.264620330779 
0.370117823371 
0.343133026123 
0.628938413959 
0.701695446991 
0.141232885928 
0.16223063996 
0.122463472206 
0.50949384991 
0.706167267537 
1.13072285888 
1.2158636794 
0.847171573236 
0.305605991938 
-1.48215611554 
-1.53280592211 
-0.882928007389 
-1.12694432789 
-1.020808816 
-0.725461391478 
-0.25559253088 
-0.589415083137 
-1.11695686214 
-1.93555449585 
-1.34166684402 
0.0616397879427 
0.407844360713 
0.27080518397 
-0.0337198018153 
-0.486199152711 
-0.108878315284 
-0.290500974213 
-0.225187165674 
-0.980962644578 
-1.27715853528 
-0.235871089703 
0.860116831606 
1.17788905872 
0.16926243238 
-0.867254938894 
-0.349158226997 
0.0372809002582 
-0.206701151521 
-0.656360733472 
-0.43631506948 
-1.28629160854 
-0.895308938739 
0.170220173458 
-0.379627757726 
0.413502767219 
0.80855629756 
1.55107594681 
0.928916031285 
0.769046141106 
0.485676744174 
0.326470401919 
-0.699230036628 
-1.02496254024 
-0.454922191422 
0.422589296121 
0.78360411408 
0.876303641945 
0.787225524269 
0.734675894538 
-1.1521769918 
-1.14679395645 
-0.334218771423 
-0.605102946449 
-0.915198271154 
-0.940981607674 
-0.142748585043 
-0.69046718228 
-0.704345576373 
-0.826000687151 
-0.123999479559 
0.541185238428 
0.588722528977 
0.281587763933 
-0.414847334892 
-0.480770053835 
-0.468662192195 
-0.294901217535 
-0.128426457332 
-0.788278749135 
-0.848838434071 
0.019772153436 
0.420424794902 
0.17087772219 
-0.0820020569846 
-0.692731080861 
-0.475118859291 
0.193940913358 
0.255710052077 
-0.181010833779 
-0.463265545756 
-0.436531176433 
-0.471250640828 
0.42517482869 
0.0565561182175 
0.676707548054 
1.61559633877 
2.17177442579 
1.19085241945 
0.310889297975 
-0.0971953411652 
-0.622194241418 
-0.899723256244 
-0.688392537816 
0.119613976905 
0.990211325153 
0.961064304667 
0.637722299912 
0.00136712859518 
-0.511160618422 
-1.74908722361 
-1.77279528394 
-0.914128467626 
-0.616469267846 
-0.631194773989 
-0.53730231014 
-0.0569282757782 
-0.349277790551 
-0.228073938567 
-0.443414986175 
0.605888733468 
0.268350919809 
-0.111729838543 
-0.39516728066 
0.0480148703304 
-0.0577522702117 
-0.019063353147 
-0.468262896512 
-0.649957693092 
-1.17768581192 
-0.628705035482 
0.21326389379 
-0.0671994992511 
-0.229006162824 
-0.309551448727 
-0.588080414961 
-0.191948397935 
0.538285051035 
1.00478146038 
0.0640133142559 
-0.681726134529 
-0.96993640676 
0.415301676522 
1.05276988879 
0.331217035355 
0.0656642474307 
0.842751605175 
1.22185756648 
0.693138509596 
0.00205439676867 
-0.911031214347 
-1.3819236821 
-1.42505703587 
-0.666272305202 
0.355976466639 
0.918421578667 
1.16443650629 
0.814711565905 
-0.737864303745 
-1.12507058541 
-1.42204710112 
-1.71737843589 
-1.40501392232 
-1.22670158752 
-0.449723562885 
-0.541907829682 
0.107978023343 
-0.356410200295 
-0.310724434942 
0.285290611203 
0.663903206657 
0.11999185552 
-0.797677247319 
-0.346516307853 
0.186443204615 
-0.0399100463049 
0.172279014285 
-0.158259255304 
-1.18533104583 
-1.40853461297 
-0.161570820416 
-0.137876303566 
-0.389795584122 
-0.420950031338 
-0.48299238456 
-0.0461254799451 
0.769201748309 
0.974586758504 
1.17960060354 
0.358399176422 
-0.434353990609 
-0.408959258168 
0.567079383227 
1.04613753978 
0.252106537127 
0.256287160911 
0.299151246081 
-0.256396344378 
0.00683595419069 
0.0949924081402 
-0.854701521094 
-1.74660977043 
-2.55404419275 
-0.818799473796 
0.772471446791 
0.679787389855 
0.589402928166 
0.570601312793 
-0.111234786529 
-1.38766227982 
-0.502439041641 
-0.689963569901 
-0.975425239387 
-0.989137036437 
0.0979172166593 
0.653945253642 
0.0828767325637 
-0.616513907102 
-0.365682487108 
-0.726682210455 
-0.223237291708 
-0.286828291793 
-0.629251708833 
-0.133627109305 
0.347231722803 
0.410289361973 
0.146130988216 
0.04739693215 
-0.700725906371 
-0.740556517151 
-0.304302073479 
-0.348417834218 
-1.0472240684 
-0.916627566884 
-0.608343613671 
0.119749334982 
0.636443844674 
0.523226920529 
0.636254991285 
-0.11945304623 
-0.381775671293 
0.22008948562 
1.58503332706 
1.24580352042 
1.32741053207 
1.34542219439 
0.0829490587895 
-0.360210510231 
-0.519515155787 
-0.277482066883 
-0.757237344243 
-1.33937581358 
-1.97028520225 
0.170461681933 
1.22881014193 
1.04382503676 
0.60647648019 
0.475078631115 
-0.106067340897 
-1.6247352732 
-0.787750755631 
-0.551732173682 
-1.02490510973 
-0.782708743926 
0.253294177867 
0.838545282602 
0.554015940192 
-0.308169899096 
-0.312873483676 
-0.657232587992 
-0.689430502069 
-1.03426653971 
-0.898781640849 
-0.646773986482 
-0.10786912016 
0.503233274622 
0.526652303238 
0.112956086808 
-0.337756724951 
-0.34594353365 
-0.321726623594 
-0.260753474869 
-0.484742740726 
-0.702636303834 
0.0284832583522 
0.526646034741 
0.273785796909 
0.181734633069 
0.130716519709 
0.0348872254147 
-0.014743894732 
0.105714483002 
1.30186795423 
2.07345432641 
1.89944930031 
1.87760271488 
0.887669072227 
0.603057351232 
0.130166482405 
-0.115842952365 
-0.00736527246517 
-0.0215699880996 
0.247852815586 
1.03085450383 
1.13856182527 
0.438438527586 
0.64633288966 
0.55985421064 
-0.0377661878642 
-1.42641587218 
-1.05689587777 
-1.07624883657 
-1.71886330282 
-1.94634732689 
-1.11552917213 
0.1716121335 
1.1147448702 
0.480781571551 
-0.822686654602 
-0.8770621885 
-0.600144547502 
-1.34580372769 
-0.766291691394 
-0.780965618497 
-0.200024292512 
0.438773246019 
0.635080424821 
0.0368916949011 
-0.765840973623 
-1.38158616672 
-0.981638062846 
-0.558470179335 
0.0547946377351 
0.305094960574 
0.307761984147 
0.585441527362 
0.175252806187 
0.151582662035 
0.0496935321571 
0.409383734233 
0.196600519089 
0.276388918704 
1.48436954126 
1.84498861179 
2.14760700672 
1.37497231001 
0.824793707782 
0.849303493983 
1.04414417155 
1.13474165323 
1.40057744996 
1.64218125722 
1.59688720596 
2.11777838152 
1.41468063042 
0.710902162966 
0.587514924919 
-0.271432057498 
-1.29684700866 
-1.63327273564 
-1.40726992081 
-1.13894904385 
-2.25170294834 
-2.42583257916 
-2.18318713009 
-0.174207619572 
0.767137443568 
0.126844873522 
-0.83397628019 
-1.31089237085 
-0.936692953011 
-1.08398660709 
-0.863866587566 
-0.463801227577 
-0.20651697659 
-0.164939758203 
-0.123441896587 
-1.00486800963 
-2.23941441539 
-2.23884228969 
-0.923067302919 
-0.209510298734 
-0.0203184652626 
0.360033136776 
0.40481125771 
0.211705456873 
0.382378920335 
0.580656423703 
0.571120055612 
0.552988977908 
0.938341576461 
0.982512768936 
1.14383263701 
1.3772291021 
1.06704900216 
-0.173362676728 
-0.149143984929 
0.944143461582 
0.700109302559 
0.907324286752 
1.09653274202 
1.66948793153 
1.99821953633 
1.39653083318 
0.709337940158 
0.93601989548 
0.564894867785 
-0.270702235377 
-1.21556784543 
-1.49545348747 
-1.33779509759 
-1.4709511039 
-1.13093149551 
-0.92239579491 
-0.386037920963 
0.688773591175 
0.796022938341 
0.450878569661 
-0.726316311007 
-1.5287673819 
-1.49581222588 
-0.881898571728 
-0.463187932138 
0.430959985166 
0.0985443040057 
-0.668717923503 
-0.811964184301 
-1.52778328134 
-2.91367266617 
-2.21494452819 
-1.11541952863 
-0.0798976159894 
0.508478841262 
0.379409002255 
0.384674520727 
-0.194526850977 
-0.343088433999 
0.273790600325 
0.684381424864 
0.714771591799 
0.975318074251 
0.756013383264 
0.443475105615 
0.264366931582 
-0.589015616751 
-1.26597570586 
-0.774051823587 
0.0929809244891 
0.339015613256 
0.536952443775 
0.730908716094 
1.05208998242 
0.972610589609 
0.4687585054 
0.633550987045 
0.946519885226 
0.750204777294 
0.700793219487 
0.111653281291 
-0.646383951805 
-1.37792742943 
-1.25652370247 
-0.575411195051 
0.35748919426 
0.535962099949 
1.32333188828 
1.18160299982 
0.181566810737 
-1.11451488941 
-1.56631640681 
-1.30905397587 
-0.718608293954 
0.728497180021 
1.57796966407 
0.672911270383 
-0.580969323348 
-1.11733904654 
-1.18004177638 
-1.79408011498 
-1.52291066677 
-0.58633402785 
0.578889387337 
0.857415041957 
0.264447063884 
0.0528966972519 
-0.213035571776 
-0.355913185157 
-0.359193777835 
0.221250519223 
0.613926786156 
1.31615805421 
1.2020936007 
0.341695276338 
-0.256762607069 
-0.979860900821 
-0.800561240215 
-0.947439071201 
-0.502534923632 
0.377568475441 
0.728644172237 
0.320464801667 
-0.237846633075 
0.387376423639 
0.452813274483 
0.0861090719738 
-0.158935157204 
0.142620540196 
1.00736202193 
1.15430158811 
1.05301397184 
-0.83991873393 
-0.652640756501 
0.214487304887 
0.545686038073 
0.630645446965 
0.539846265552 
0.0691594763278 
-0.462013923342 
-0.846667031313 
-0.671524247172 
-0.259096694977 
-0.410522640468 
1.24969718883 
0.953221349017 
0.190794695782 
0.0159987480614 
-0.79218564758 
-0.455089537419 
-0.293599432061 
-0.468738246888 
0.378668392117 
0.867760468582 
0.434731269983 
0.375523435714 
0.222535946457 
0.0157858970131 
-0.0628805471567 
-0.54528644712 
-0.490460232211 
0.772036014473 
1.03050792197 
1.59433826227 
0.864106428521 
0.480855224931 
-0.111416130878 
-0.731909746135 
-0.418120821835 
0.0854188965253 
0.835977161087 
0.595888851553 
-0.64561098711 
-1.04824899089 
-0.551624388076 
-0.785706427094 
-0.537742136308 
-0.665288519776 
-0.128109569276 
1.05561487013 
0.605498943307 
0.694316849349 
0.737074378792 
0.914654724822 
1.65658121172 
1.3646518327 
0.708160726678 
0.515502790053 
-0.900363560231 
-1.13426675056 
-0.557583876938 
-0.121819226122 
0.324937354558 
0.22978762005 
0.974639156301 
0.864438054937 
-0.0969517024118 
-0.833732091847 
-1.24141749614 
-0.916363626433 
-0.633108189967 
-0.0540475766807 
0.502997325734 
0.68372304661 
0.00546236103457 
-0.208796429194 
-0.0859421848212 
-0.742279866556 
-0.701987184552 
-0.432854387738 
-0.381981281448 
0.0849455430681 
0.470170449187 
0.759528867797 
0.996827765183 
0.945023100625 
0.749470775134 
-0.42914269651 
-0.386340433296 
0.665951008611 
0.892788927407 
0.110816518795 
-0.566646349225 
-1.19598547838 
-1.04626245252 
-0.913365687955 
-0.624934711502 
-0.616555967959 
-0.111847519225 
0.38447899581 
0.719999589554 
0.442451539435 
1 
1 
1 
1 
1 
1 
1 
1 
1 
1 
1 
1 
1 
1 
1 
1 
1 
1 
1 
1 
1 
1 
1 
1 
1 
1 
1 
1 
1 
1 
1 
1 
1 
1 
1 
1 
1 
1 
1 
1 
1 
1 
1 
1 
1 
1 
1 
1 
1 
1 
1 
1 
1 
1 
1 
1 
1 
1 
1 
1 
1 
1 
1 
1 
1 
1 
1 
1 
1 
1 
1 
1 
1 
1 
1 
1 
1 
1 
1 
1 
1 
1 
1 
1 
1 
1 
1 
1 
1 
1 
1 
1 
1 
1 
1 
1 
1 
1 
1 
1 
