1.05680516479 
1.60266748871 
0.996118488785 
-0.45990704228 
-0.278061693631 
0.442588407613 
1.15680788546 
0.566419816211 
-0.728514761196 
-0.655274757328 
0.104893503178 
0.54450371217 
0.817803545024 
0.312721659461 
-0.262594622349 
-1.03228222094 
-1.06654479476 
-0.991298095819 
-1.39112548152 
-0.484603269106 
0.985934592733 
1.4654595569 
0.325731763025 
-0.280760897702 
-0.12676656573 
-0.254080342073 
-0.626329473676 
-0.259463440048 
0.047237271554 
0.0665690922873 
0.146718982572 
-0.502845250864 
-1.08656917729 
-1.4207544127 
-2.0909222579 
-1.81769285231 
-1.34511064108 
-1.1333027785 
-0.341024568227 
-0.110974968357 
0.0765682892568 
-0.0856488237442 
-0.953050875949 
-1.72514933245 
-1.58221979564 
-1.48353898713 
-1.31170174001 
-0.537435000625 
0.55634199954 
0.627903326084 
1.59812835912 
1.80851613962 
1.03020827606 
-0.726941252672 
-1.21763324061 
-1.08877963998 
-0.707038493676 
-0.171548202834 
-0.531066595293 
-0.370998377818 
0.361698117903 
-0.0449640189065 
-0.237977418397 
-0.925715939922 
-1.01122489417 
-0.901662797495 
-0.574153397648 
-0.550215778898 
-0.892715578459 
-0.183305898066 
1.07816267902 
1.19082607651 
1.12516667476 
1.35555186135 
1.61839589897 
0.525777431235 
-0.172332689228 
-0.634387540508 
-0.391458860735 
1.06806380192 
1.65822145376 
1.01466927635 
0.651671982573 
-0.00775963648733 
-0.983916224914 
-0.989466902834 
-0.153075069935 
-0.123793956322 
-0.489679611371 
-0.753115339828 
-0.371800992051 
-0.347075266866 
-1.294649872 
-1.75465867018 
-1.92353839823 
-1.74838342232 
-1.02557116005 
-0.808060351008 
-0.0857845457129 
-0.0182929790742 
1.63847147988 
1.54828842125 
1.04366981141 
-0.62400414072 
-1.76297757421 
-2.11126729945 
-0.905281302642 
-0.398158633773 
-0.204716866956 
0.78545890536 
-0.252353619614 
-0.621758255731 
-0.917271371149 
-1.42157476366 
-1.16767376242 
-0.150370661536 
0.231869959447 
-0.257783671054 
-0.349661186928 
0.526928853857 
0.542614300793 
0.195475060319 
0.63760570402 
0.740921438391 
1.37934189823 
0.956576800894 
-0.306789786028 
-0.465091073465 
-0.633472753278 
0.945656284795 
1.63570403571 
1.9420262428 
2.34301960302 
1.47330018408 
-0.0581438380925 
-0.897516155071 
-0.314336326761 
-0.134364263422 
-0.633404641 
-1.40579660145 
-0.941888113757 
-0.830751649061 
-1.28105281172 
-1.90545192181 
-1.87723818419 
-1.524003196 
-1.21237498998 
-0.664693499817 
-0.0374315201942 
0.438580759127 
2.54807150787 
1.79188315352 
1.04757391381 
-0.263539515076 
-1.34244321417 
-1.38370004153 
-0.566930991183 
-0.505261207236 
0.149209647573 
0.700526318207 
-0.12211899028 
-0.75503264013 
-1.07687251625 
-1.28628520075 
-0.959248531063 
-0.245368867913 
0.0393454045244 
0.189051498389 
-0.442612749651 
0.00324309476657 
-0.0898034587295 
-0.612217538531 
-0.504192340011 
-0.928605868101 
-0.126721760462 
-0.672291727183 
-1.56456885526 
-0.274239201601 
0.369228536506 
1.43889303887 
2.13254619275 
2.43706903623 
2.53165380217 
1.7141849006 
0.376584002446 
-0.297229878373 
-0.625542957707 
-0.575325133073 
-0.863584818804 
-1.40506772493 
-1.99430612507 
-2.11346683715 
-1.32587227337 
-1.45297150958 
-1.14451027389 
-1.44760931778 
-1.29768477613 
-0.66402357659 
-0.518227667618 
0.144174788123 
2.13285143095 
1.40749810085 
0.961825338709 
-0.0642964715398 
-1.09193449774 
-1.25845427031 
-0.110169317603 
0.813569508186 
0.624602766231 
0.734825436224 
0.239738391571 
-0.15425164323 
-0.715851113474 
-0.961865146386 
-0.760099611642 
0.0213594937426 
0.412115141788 
0.284618287023 
-0.479592547193 
-0.040878320583 
-0.607786795713 
-0.739053382367 
-0.801103923209 
-1.59341691834 
-2.53059636411 
-1.78384437297 
-1.29778133408 
0.450888858211 
1.04793766899 
2.16251603231 
3.03184371064 
2.84983662106 
2.01296555123 
0.986412714574 
0.868609756595 
0.302859391665 
-0.486747377135 
-1.25952435915 
-2.31370960314 
-3.11423159243 
-2.83552568235 
-2.53036640092 
-1.29659122683 
-1.59557858458 
-1.23585516015 
-1.09463760251 
-1.29089727845 
-0.607613454251 
-0.162329757077 
-0.000797301101121 
2.20121644295 
1.32235489528 
0.669407501961 
-0.81070500976 
-1.32733591988 
-1.26284268427 
-0.620865542975 
0.526819988894 
1.1405010396 
0.420434114759 
-0.300306051946 
-0.956472956883 
-0.737871920283 
-0.266205376729 
0.231816339504 
0.0216310841266 
0.373220606884 
0.592786670623 
-0.245477072077 
0.0978461320482 
-0.539311432285 
-0.74108577118 
-0.444555738023 
-1.75678258573 
-3.49227922815 
-2.76177722304 
-1.73969682879 
-0.0168155996048 
0.616754971053 
0.824301454466 
1.70954767581 
1.72872188747 
1.04494250324 
0.161894418227 
0.407495373512 
0.89223296822 
0.226452897236 
-1.07561327609 
-2.55132432245 
-2.94459462991 
-2.11079090157 
-1.50804241176 
-0.928445707264 
-0.929081995284 
-0.929445016085 
-0.873929980967 
-0.482246021797 
-0.149831998346 
0.327933448898 
0.565439201445 
1.82604987088 
1.56089838851 
0.409743498176 
-1.00932259865 
-1.5937457294 
-1.17827505811 
-1.20507896927 
-0.772995026075 
0.144753356836 
-0.191679454109 
-0.720006580937 
-0.898523353681 
0.0501105628174 
0.483831215362 
0.0968102744462 
-0.499025497922 
0.0456047998419 
0.257053727737 
0.198986978411 
-0.262213693414 
-0.374135112879 
-0.441285403149 
-0.173163198001 
-1.26094329284 
-2.61636490034 
-2.7849857218 
-2.11543601971 
-0.69171661137 
0.0732024464295 
0.285763952521 
1.02678523922 
0.69312305125 
0.269743007339 
0.00214458445376 
1.03638119433 
1.5979906921 
0.65925620083 
-1.16627031859 
-2.54180311726 
-2.41054544598 
-0.746256502187 
-0.63943039271 
-0.693383742017 
-0.167102604647 
0.0632830408915 
-0.307619817285 
-0.0712675515661 
0.569778859781 
0.942391452357 
0.511660105825 
2.18962595594 
1.75867640405 
0.225141427113 
-0.949923024897 
-1.35641173416 
-0.76252532571 
-0.850567019667 
-0.402856112463 
0.308132678593 
0.774764393053 
0.797312018911 
0.228337522143 
0.324952932089 
0.46524517289 
0.14012589641 
0.418167155455 
0.597345438908 
0.695527305151 
0.162380416833 
-0.272445701382 
-0.656389098699 
-1.07634794234 
-0.78391665337 
-0.768582814454 
-1.21739433951 
-1.85854596132 
-1.29157793456 
-0.651954283268 
-0.605098167724 
-0.482264993466 
-0.774568168654 
-0.736651428681 
0.0774851607196 
0.566671324693 
0.536017958301 
0.495621489752 
-0.0172209945443 
-1.09732198728 
-2.15948079807 
-1.98296570991 
-0.65071342295 
-0.0314722347259 
0.0457494499014 
-0.0569057304955 
0.134860059042 
0.287810030174 
0.175996090356 
0.604907612131 
0.85774613975 
0.059764403742 
2.30087175583 
2.12828814829 
1.27795616128 
-0.784963556987 
-0.582240317296 
-0.105921503844 
-0.193572741639 
0.14343204878 
1.15767390057 
2.50439447121 
2.42434729776 
1.39955045229 
0.654586248061 
0.908007625059 
0.364648823832 
1.17248844826 
0.684305561212 
0.801751685423 
0.389018926585 
-0.308483859714 
-1.04839160045 
-1.46517434308 
-0.969457855548 
-0.931535202701 
-0.535983646973 
-0.751621811994 
-1.08586752996 
-1.39163961138 
-1.38709999734 
-1.680857719 
-2.19288919297 
-1.05034604921 
0.0237952597262 
0.314957339326 
0.40419187997 
0.270142037572 
0.0296469359288 
-0.846162947371 
-1.35191268034 
-0.866928703532 
0.214613779759 
0.316234530425 
0.545115659167 
0.336313674667 
0.395271493148 
-0.335681416347 
-0.285597099627 
0.412189104957 
1.1175242035 
-0.146454044905 
2.48793785683 
2.64441033505 
1.0311225319 
-0.20311612645 
0.394532721886 
1.38558431312 
0.93738829114 
0.718267718565 
1.82181675729 
3.12547349932 
3.16822158399 
2.70773391506 
1.64946309306 
0.688314703839 
0.131268725189 
0.490821352368 
1.06603917499 
0.333990200754 
0.521979576123 
-0.396426457376 
-1.32025171379 
-1.33872787995 
-0.617251789327 
-1.25011130881 
-1.73199881523 
-1.36475604806 
-1.84086333954 
-2.28547208675 
-2.38739696362 
-2.61348504165 
-1.7085775248 
-0.867138979699 
0.423417752624 
0.88735942281 
0.593217012111 
0.709177907067 
0.535067426505 
-0.18600530244 
-0.107858183853 
-0.0560264749606 
0.549752551177 
0.72009864945 
1.52385012673 
1.18128227299 
0.648530628349 
-0.242745262097 
-0.385074878512 
-0.250064258846 
-0.106808415297 
-0.213719897202 
2.41762450165 
2.25408952472 
1.329759695 
0.796094035262 
1.55228349966 
2.08438417241 
1.17368575964 
1.03256433462 
1.92929785804 
2.83064569111 
2.9555993368 
2.77328044107 
2.25837742149 
0.986751769772 
0.120680637187 
-0.132895761242 
0.415732841806 
1.03691476025 
1.06251886536 
0.422908371656 
-0.496639165232 
-0.434800018246 
-0.910039008075 
-1.87497604412 
-2.43956842921 
-2.13600212333 
-2.58286242407 
-2.75613810325 
-2.52924733193 
-2.26656132536 
-1.84101490025 
-0.291149350705 
0.710777507046 
1.00872024341 
0.757263131409 
1.04488734298 
0.746432396698 
0.523692787421 
0.00613511134798 
-0.12730082746 
0.178245317466 
0.587388873541 
1.13172076565 
1.0420751499 
0.494686759387 
-0.0584410478898 
-0.222726052615 
-1.07143292792 
-0.939459582802 
-0.477361462824 
1.275013588 
1.29505180706 
0.985944967739 
0.88868602002 
1.75996845369 
2.25035225173 
1.28593757129 
1.05273794974 
1.4161644187 
2.34646419034 
1.9529052456 
1.95896482858 
1.90438415005 
1.02823037194 
0.0414341525959 
-0.287486122026 
-0.225772585843 
0.489883987859 
1.48447700419 
1.53185126196 
0.389245941362 
-0.738497146332 
-1.18746727825 
-2.30014418879 
-2.97609325297 
-2.12340473827 
-2.59742251716 
-2.32719459754 
-2.16968262758 
-1.63495683959 
-1.49546346659 
-0.356246090917 
0.988254131364 
0.800831393724 
0.172537933379 
0.444324607828 
0.307543976 
0.549803371337 
0.233901910646 
-0.689998744864 
-0.500622490516 
0.0680322731487 
0.61794778939 
0.374016712957 
-0.10651231083 
-0.627994001452 
-1.0474569977 
-1.15565657302 
-0.304049261605 
-0.230749736042 
-0.179265197238 
-0.00552733340654 
0.281461758737 
1.2019062553 
1.71981376222 
1.76477525447 
1.31347680046 
0.824192796215 
1.13828586753 
1.35164691718 
1.07174557486 
1.07562767183 
1.31365643012 
0.633831647876 
-0.214261287159 
-0.56577040346 
-0.260509833123 
-0.00625226313725 
1.39387130053 
1.33292026526 
0.563630281987 
-0.723845082469 
-1.29451336752 
-1.56802481202 
-1.69376586478 
-1.35063347651 
-1.39231356857 
-1.72023397183 
-1.9757486965 
-1.32017184357 
-0.928517095908 
-0.706415273318 
0.972710138101 
1.26480078446 
1.1833100734 
-0.159325073844 
-0.733350858764 
-0.0493809796179 
-0.0842597544966 
-0.246702851234 
-0.608052617835 
-0.757391049176 
-0.365281238161 
-0.0652001825511 
-0.158287292788 
-0.335018103144 
-0.720162134298 
-0.983048246313 
0.0333764943547 
-0.3429554862 
-0.100155606442 
-0.169761814335 
0.620075855521 
1.14484976915 
1.08745529105 
1.46570602249 
1.06739578912 
0.531875003007 
0.606842629234 
0.377769427158 
0.128405484057 
0.378397141148 
0.151517701929 
0.0943766594896 
-0.827699012023 
-0.74986324617 
0.0353575308589 
-0.528877810015 
0.148046637227 
1.0476055659 
0.446358203724 
-1.34152072379 
-0.696270737063 
-0.773507253745 
-0.490766657522 
-0.648107939346 
-0.61133859021 
-0.724179615502 
-0.922701115861 
-0.40354103356 
0.00869677095915 
-0.540687012601 
0.196275140332 
1.3342333379 
0.950066373526 
-0.279967276938 
0.0356527277676 
0.312814005834 
0.294447397604 
0.306003667605 
0.147134765745 
0.430726205255 
0.572519178648 
0.501998392314 
0.731410387407 
0.0414966294993 
-0.0995486914666 
-0.558683093218 
-0.701242436711 
-1.12613508727 
1.0407043665 
1.0580739661 
1.17930328239 
1.46277138855 
1.09535651017 
0.60778922075 
-0.348501598178 
-0.337140556359 
-0.234893811244 
0.330270620801 
0.317897391191 
0.00700955186074 
-0.532032523916 
-0.273156653416 
-0.837797516332 
-0.499429916163 
0.0941341670849 
-0.727331293795 
0.338451418988 
1.13529387412 
0.353348999103 
-1.05440683401 
-0.87612085643 
-0.366157164526 
-0.0945650123474 
-0.356007898927 
0.177520415158 
-0.0511288478996 
0.0479891398837 
0.270017479195 
0.32730284931 
0.125206023881 
0.423834264106 
1.27221018405 
0.832513164178 
0.0604484464224 
1.0138084971 
0.691134426263 
0.719524267889 
1.34629196336 
0.887035267356 
0.943392437185 
1.25773009083 
0.833604651174 
-0.0962903869109 
-0.465975538532 
0.226903640937 
0.0780004509029 
-0.949180635993 
-1.28905756059 
2.20810425216 
2.33228818842 
2.2128919608 
1.25511398193 
0.314686558875 
-0.555758657215 
-1.09306832673 
-1.13389238129 
-1.01724240131 
-0.194575682706 
0.144277116147 
-0.366425215193 
-0.285862736155 
-0.691204614752 
-1.1572325028 
-0.321431200146 
0.756339546897 
0.682400701563 
1.09496374638 
1.1056867153 
0.673294742257 
-0.578164461861 
-1.27843828166 
-0.0279962667337 
0.534715064695 
0.48547600923 
0.798097740765 
0.480527460606 
-0.171265794584 
0.727157423886 
1.02188895984 
1.1353937328 
1.54546857874 
1.50387177996 
1.03250671679 
0.616467394155 
0.897808767372 
1.17315875395 
1.12383783115 
1.1986209212 
0.710353283576 
0.153864139178 
0.928360711226 
0.687024262697 
0.239933045575 
0.0565124226617 
0.608287640586 
0.190806708203 
-0.714248660411 
-0.992046367398 
1.82304444506 
2.52630881947 
1.71994342458 
0.339716031435 
-0.168404010298 
-1.41253674459 
-1.45924421824 
-1.1814261414 
-1.13335231552 
-1.12280141981 
-0.499513262045 
-0.078780985352 
0.573905823979 
-0.0767961675993 
-0.642342945083 
-0.14257987098 
1.35803641736 
1.18068829911 
1.23274986221 
0.739032059773 
0.353681072346 
-0.322309045696 
-0.336557706266 
0.373856381899 
1.02430819281 
1.05685715452 
0.947696509531 
0.556637646123 
-0.176510651773 
0.225145841095 
0.8222130232 
1.42194773556 
2.32965663538 
2.61322758343 
1.56633640018 
1.09889679065 
0.683063061798 
1.01956361498 
0.830938375851 
0.453433404816 
-0.477036317571 
-0.576082810716 
-0.0445252794154 
0.346597909967 
0.607988326694 
0.687582011158 
0.762931102471 
0.21781174452 
-0.707852163185 
-0.918020779569 
1.4127753649 
1.53944926534 
0.547730953783 
-0.715091326706 
-0.922318457491 
-1.25154896753 
-1.23434193497 
-1.12565660869 
-1.20643778675 
-1.30664529424 
-0.283160194431 
0.65566329163 
0.497187142558 
-0.0108185919561 
-0.29202428575 
-0.0451511864097 
0.839165686314 
0.853745289547 
1.16665327648 
0.633995089544 
0.748491616802 
0.750247816848 
1.02920812208 
1.01516535003 
1.20477004931 
0.685984486613 
0.665715154978 
0.647710968066 
-0.292241731482 
-0.900788140755 
-0.074590147195 
0.667441798256 
1.87446128556 
2.07344001194 
1.14390955994 
0.639081492819 
0.532643059846 
0.950207496426 
0.819363474098 
0.59241972229 
0.108901178696 
0.397174937213 
0.73892916547 
0.472247879044 
0.0243714732162 
0.171180287598 
0.0477784752441 
0.0432983980306 
-0.694126856855 
-0.892285528485 
1.11337194949 
0.593715283423 
-0.152352115842 
-1.12839447404 
-1.30366370741 
-1.51632792646 
-1.67978190091 
-1.08277318982 
-0.43242360416 
-0.367787246566 
0.273737627444 
0.258489810989 
-0.0985255424369 
-0.534426315924 
-1.05892759886 
-0.326340974416 
0.535609755412 
1.06395827189 
0.681080076569 
0.446846298848 
0.841528256293 
0.467188263203 
0.360828963564 
0.0691110469412 
1.3274056326 
0.699984830634 
0.0904826096913 
0.0139736152364 
-0.381858911181 
-0.826483704966 
-0.285407317337 
0.487443570894 
1.34878938876 
0.917775745791 
0.357309440401 
-0.294608698117 
-0.370783384008 
0.472848613574 
1.349237362 
0.745273239711 
0.997931414651 
1.50055622205 
0.637580157148 
0.613489807559 
-0.14696582214 
-0.480987253317 
0.00551057578218 
0.263008871294 
0.0248766884287 
-0.755733705642 
0.616765035016 
0.516270999402 
-0.681127078002 
-1.43473891015 
-1.51783810601 
-1.96045145127 
-2.13301645879 
-1.74587403202 
-0.356653953888 
0.447632553486 
-0.219054181181 
-0.591824766896 
-1.13805633444 
-1.14483819538 
-1.4691507702 
-1.00034660731 
-0.329883184041 
0.288550339691 
0.430854799944 
1.25950623446 
1.35894549874 
0.565745035202 
0.197987216391 
0.0336235317236 
0.532409205359 
0.122406476965 
-0.373201775862 
0.0942573615782 
-0.903184420108 
-1.98674745996 
-0.834538339757 
0.236288251659 
0.88881741793 
0.018908868203 
-0.205431922381 
-0.390159930928 
0.124986122034 
0.955564739005 
1.6964138337 
1.75433497302 
1.95019938264 
1.74399087688 
0.591717932945 
0.536108929371 
0.573124226695 
0.205798575331 
0.0390675046077 
0.00531215469376 
-0.230337576101 
-0.511621506032 
0.214101139882 
0.542333981833 
-0.116527124393 
-0.78156888352 
-1.35692136001 
-1.6135252106 
-1.50383191359 
-0.940101424988 
0.356481615026 
0.722292812105 
0.377345483845 
-0.719965774679 
-1.76108383135 
-1.67117430063 
-1.62054341841 
-1.01018728 
0.175190510382 
0.236605027135 
0.36389813181 
1.48019110014 
1.13936957134 
0.612681391099 
0.789833013443 
0.783628912829 
0.157430520389 
-0.401967904818 
-0.608434571843 
-0.289608162496 
-0.718511837283 
-1.50125435146 
-1.03446424732 
-0.305452982517 
0.325473014642 
0.084221719858 
-0.730769358291 
-0.247777009064 
0.879389253676 
1.62259824488 
1.44924895805 
1.98739989475 
2.12264108051 
1.55912885935 
0.761266605421 
0.905136566833 
0.552785983654 
-0.0932136181091 
-0.0202586481725 
-0.419846449215 
-0.23084803943 
0.246065815331 
-0.685710582365 
-0.543542154691 
-0.986800465776 
-1.69638292273 
-1.38018931735 
-0.738338206698 
-0.00941318598537 
-0.0155471780166 
0.162425598036 
0.236505763549 
0.741396720309 
0.0247808791832 
-1.07295844901 
-0.602528100582 
-0.306757959492 
-0.232506981159 
0.684768475026 
1.00420485935 
0.807710985146 
0.919472678732 
0.810686275776 
0.406152921157 
1.02114925949 
1.0219459098 
0.822412701826 
0.2047828626 
-0.548234473265 
-0.343438816232 
-0.576947847518 
-0.603991741672 
-0.525189571166 
-0.532983737835 
-0.158162526379 
-0.752973240357 
-1.53453428235 
-0.626077384454 
0.305611270581 
0.997578184325 
1.00072109416 
1.00065044161 
1.23735169537 
0.666762157068 
0.730341504924 
0.266008032454 
-0.220914215527 
-0.51612788566 
0.213977891038 
-0.00244591346302 
0.64791363353 
1.07594049203 
-1.27294798419 
-0.782690321927 
-1.1119794319 
-2.25654546754 
-1.73718889394 
-0.571086503302 
-0.226684547972 
-0.267132544438 
-0.501905625363 
-0.085710357716 
0.552684649921 
0.376865191885 
0.367161756452 
0.249032224757 
0.455295166781 
0.254271988179 
-0.210698750565 
0.238292993152 
0.58836554138 
0.51770675856 
0.722936404969 
0.5135267364 
0.262889565375 
0.75191867708 
0.785589309823 
0.699492667994 
0.761569133953 
0.732242366702 
0.141438201034 
0.0379988051713 
0.329767869049 
0.158251433279 
0.620920840534 
-0.621739966376 
-1.83667376712 
-1.68219837009 
-1.02946096641 
0.0940699550045 
0.655197465045 
1.05669341984 
0.393036243503 
0.00818146125703 
0.303891066173 
-0.140899670305 
-0.0617700548173 
-0.081511069641 
0.449526049826 
0.621200523623 
0.602551574467 
0.63474481628 
-1.31405898135 
-1.35302431445 
-1.2577316195 
-1.92487048645 
-1.92730717612 
-1.49117156268 
-1.20573709016 
-1.3344324833 
-0.578413507576 
0.422343641791 
0.631050211408 
0.726239898969 
0.371790023813 
0.109307517485 
0.734324701739 
0.867851377556 
0.114859104127 
-0.107992159084 
0.18966354376 
0.157198368365 
0.931752605331 
1.00533793759 
0.512759111261 
1.00813704496 
1.33052870785 
1.39020006943 
1.74687566198 
2.01277561636 
1.27452397445 
0.147404375964 
0.213167038277 
0.271884843604 
0.406982467244 
-0.704682305307 
-1.1003877982 
-1.39144414801 
-1.12864058504 
0.239073059055 
0.527626088244 
0.448058287884 
-0.118126506069 
-0.11072759299 
0.205070854017 
0.209580473863 
0.458765650934 
1.17511804971 
1.23272945896 
0.262030191106 
-0.433380528173 
-0.290260214386 
-2.01256904607 
-1.58252391602 
-1.1417556962 
-2.1064779249 
-2.46522799176 
-1.92889008948 
-1.17480996744 
-0.907481158935 
-0.249834595472 
0.606410644518 
0.466246156786 
0.286066586211 
-0.137576345219 
-0.00128841877419 
0.340970782635 
1.08244491173 
0.732258903643 
0.473884254142 
0.301853778723 
0.121482460043 
0.87696235153 
1.11153860387 
0.835983494522 
1.10027356517 
1.08979585546 
1.48897537548 
2.09246760122 
2.4324295383 
1.20568779055 
0.054752584575 
-0.131590547534 
-0.786768451075 
-0.872631068999 
-0.904755067596 
-0.673523333899 
-1.06253743592 
-0.78465871068 
-0.482271500453 
0.00672111136369 
-0.167319343713 
-0.638563675476 
-0.34244466361 
-0.440925052075 
-0.20389510324 
0.269622522721 
0.000896147264378 
-0.337710418979 
-0.473974390169 
-0.532426544619 
0.0426834287972 
-1.42788653642 
-1.48778665847 
-1.60558410187 
-1.84390214877 
-1.98780838323 
-1.43332780797 
-0.726854771891 
-0.531884882168 
-0.00558520969206 
0.75361792192 
0.603508407978 
0.315454251527 
-0.0983391773942 
-0.321609430207 
0.229345836392 
0.970111319174 
1.32547847168 
0.965626769177 
0.777896573931 
0.221781259561 
0.284214040299 
0.855286439651 
1.05891303118 
1.20207943581 
1.68449847843 
1.20566652534 
1.16753827556 
2.3680288891 
1.46646886694 
-0.144080197907 
-0.68107909322 
-1.08489308483 
-0.543942545865 
-0.689154100789 
-0.859894460647 
-0.859534213088 
-0.773424600523 
-0.74237039124 
-0.239095517505 
-0.488408209559 
-0.944188616245 
-0.441490335706 
-0.761605893822 
-0.86637668416 
-0.438502660253 
-0.624724834784 
-0.70767618341 
-0.650140721513 
-0.251993952016 
0.662179667781 
-0.841236809855 
-1.13478218123 
-1.07684327647 
-1.03692978313 
-1.26088568797 
-1.30258615441 
-0.283225130125 
0.483966053066 
0.247108130698 
0.481672847442 
1.15867102067 
1.10196156092 
0.533989108043 
-0.677939888779 
-0.550750286743 
-0.107759290928 
0.424827565639 
0.45369193705 
0.691200380343 
0.728543299594 
-0.0400422452602 
0.907974592197 
0.960654610639 
1.3782277826 
1.59611680447 
1.52575590175 
1.48770539627 
1.73963634856 
0.816763808957 
-0.27486895382 
-0.86281862349 
-0.61924590901 
-0.35185657301 
-0.938703190073 
-1.86200370136 
-2.09775061839 
-1.4567896899 
-0.594633170839 
-0.554678166392 
-1.23162051522 
-1.14637352856 
-1.26595528121 
-1.38286134914 
-1.98228168878 
-1.86620162515 
-1.46938623898 
-1.26089158404 
-0.663000923149 
0.0864632904833 
1.07819710938 
-1.32519526262 
-0.936540296727 
-0.302883226519 
-0.582453907457 
-0.262752672067 
-0.442675544126 
0.214421200627 
0.925465861338 
0.752537458043 
0.599267338581 
1.15109473589 
1.33640262611 
0.682970954546 
-0.586312269223 
-1.09308738624 
-0.504504720423 
-0.182161427576 
-0.231058935531 
0.480995744952 
0.185804250758 
0.0263112421303 
0.973923058313 
1.6464628827 
1.06837605451 
1.03236884033 
0.422132253376 
0.879601854347 
1.12446266407 
0.449892066746 
0.389789392138 
-0.61936980479 
-0.66649582528 
-1.1751874974 
-1.48756945504 
-1.14308735609 
-1.24575253619 
-1.4347507169 
-0.986469487401 
-0.978369700609 
-0.69248594302 
-1.30150916378 
-2.1597944416 
-2.00109623197 
-2.68538596736 
-2.78984028418 
-2.21194401961 
-1.09136424854 
-0.085773871876 
0.843509199318 
1.53828296862 
-0.961922878556 
-1.11442535915 
-0.427423927222 
-0.497983932642 
-0.320048598814 
0.172746127225 
0.143968101285 
0.915142340719 
0.851939172374 
0.4937205159 
0.373757727679 
0.99361645339 
1.36523637375 
0.28154363666 
-0.90273776054 
-1.03035638979 
-1.52249520574 
-1.32854712328 
-0.563684958214 
-0.452080616728 
-0.270709419418 
0.566595253565 
0.811294976925 
0.442625594818 
0.427498463072 
0.256962663548 
0.920809913503 
1.04711519974 
0.580386074931 
0.517071406865 
-0.179432311172 
-0.256753499055 
-1.05390989468 
-1.34142367482 
-0.904506029269 
-0.7714505361 
-0.828736449699 
-0.474797673656 
-0.399857921019 
-0.213872916802 
-1.36817461654 
-2.25429518722 
-2.13412569722 
-2.48983297222 
-2.56338695466 
-1.84312979479 
-0.580476757827 
0.670583273417 
1.5382031621 
1.82150345101 
-0.285915886301 
-0.257223260704 
0.364651596605 
-0.498650991518 
-0.337910566071 
0.0461028752 
0.169543861006 
0.0516356648944 
-0.174938692985 
-0.721499788721 
0.156924804337 
1.45783617889 
2.75471636973 
2.51621728729 
1.379007498 
-0.467621875508 
-1.30076845429 
-0.784641706378 
-0.800672508179 
-0.612724072598 
-0.293084088615 
0.146551206677 
0.441902563368 
0.156335068262 
0.259842183597 
0.340718227144 
0.503872282957 
0.590441131128 
0.728248776006 
0.0731210428938 
-0.254040168475 
-0.0378593403789 
-1.05052833266 
-1.4587802077 
-1.24405636032 
-1.45541764699 
-1.27099848112 
-0.133839852722 
0.37111162852 
0.155627513247 
-1.06136887143 
-1.37081255115 
-1.16494961864 
-1.95003334063 
-1.66956958899 
-0.897630538791 
-0.471520862052 
0.690514711531 
1.7802051293 
1.54170748652 
0.0558296298283 
-0.0607291577549 
0.378937537293 
0.590915201594 
0.536028697537 
0.571839888709 
0.36819559382 
0.534940528095 
-0.276289374148 
-0.737067329507 
0.705794103636 
1.66049577191 
3.04308447351 
3.30110224605 
1.42017894627 
-0.265325940308 
-0.426729409034 
0.304838779371 
0.920842705107 
0.297061594874 
0.389921631964 
0.184694131685 
0.32045417633 
-0.0549231787308 
0.494390673197 
0.821760422234 
1.1382492702 
1.52522338325 
1.04182513959 
0.160662685784 
-0.637548661969 
-1.11870105169 
-1.49727063481 
-1.57788498948 
-1.19003966502 
-1.48029475371 
-1.04803016648 
-0.228115921439 
-0.0781270001466 
-0.257570526513 
-1.17118624857 
-1.13707314286 
-0.480340633418 
-0.726315602241 
-0.233484782301 
0.270494595803 
0.523232993137 
0.616158664077 
1.04189277862 
0.886183480616 
-0.0988435406102 
0.425124412803 
0.467788771079 
0.602431664607 
0.683722102986 
0.509904963179 
0.78497918559 
0.704899693609 
0.186394701998 
-0.00612787997313 
0.710227850309 
1.89144556907 
2.08808035917 
2.35817672028 
1.25807480793 
0.229295110682 
0.289108024057 
0.758035554609 
1.07914290611 
1.2353065825 
1.16684382938 
0.787700643771 
0.347578111351 
0.278078389805 
0.69590218594 
1.11475506503 
1.51737022503 
1.60450441031 
1.28119446199 
-0.101662538535 
-0.986523668645 
-1.11444165847 
-1.51187164487 
-1.55998477614 
-1.82553659357 
-1.32186931332 
-1.05288699076 
-0.728604044144 
-0.290429641745 
-0.371781655065 
-0.0230310088298 
-0.467737660531 
0.301683999131 
0.514230921732 
0.761650360367 
1.62305512163 
1.8962851755 
1.29446521978 
-0.0238790313837 
-0.344652291357 
0.33374550012 
0.559602353859 
0.88718446374 
0.336091022509 
0.512042813377 
0.369381989112 
1.12322046311 
1.3382011397 
0.245978154083 
-0.030053707406 
0.363396042269 
0.274705243738 
-0.113491280719 
0.435173671644 
0.148241587143 
-0.0625963438631 
0.654368609665 
1.00827599296 
0.823970005691 
0.940992964325 
0.655917532538 
0.845786948224 
0.713399844624 
1.13326212378 
1.39913961631 
0.808529807329 
0.649400067443 
0.910533952534 
0.67710569818 
0.158555799464 
-0.432243612605 
-0.415385059748 
-0.962767628986 
-0.630349365647 
-1.2281543236 
-1.11665937898 
-0.859164173333 
-0.504954989612 
-0.596006269511 
-0.596305151345 
0.36907717548 
0.174642872738 
0.262508223859 
0.623494345139 
0.681405819213 
1.42321359617 
2.25082529841 
1.64794483388 
0.257581746051 
-0.377734054105 
0.469818777333 
0.856168415247 
0.420598661337 
0.0599447833807 
0.240736273367 
0.653511278268 
0.582587907635 
1.2694818729 
-0.154343328278 
-0.299512033777 
-0.370646108945 
-1.32419257196 
-1.97059765371 
-1.59271486965 
-1.05187907291 
-0.40492230609 
0.151438213453 
1.38753805721 
1.04808593406 
0.598443236788 
-0.053709082271 
0.137912147034 
0.80416771277 
1.32298287228 
1.43350014913 
0.993043950654 
0.671004020067 
0.265813684388 
0.160695360934 
-0.25575226291 
-0.00332474906054 
0.0324719962441 
-0.229612606752 
-0.00118454626363 
-1.23318706919 
-1.51948653012 
-1.48239738154 
-1.47757254317 
-1.08635879556 
-0.621802007409 
0.440331521515 
0.591585593499 
0.0796896021029 
0.0723003522838 
0.61332661984 
1.0705840862 
1.51427802434 
1.20150694382 
0.804641531191 
-0.0801671939348 
0.803362655004 
0.990886403696 
0.321064491878 
0.0730872015411 
0.164858593381 
-0.0533707996381 
0.13383020736 
0.492737671846 
-0.900247947385 
-1.48745138437 
-1.02214776228 
-1.2726782678 
-1.42073413722 
-1.29778390479 
-0.0611600596966 
0.809610574181 
0.663052730988 
1.30828401136 
1.38977025788 
0.49228718542 
-0.381219348303 
0.185689974183 
1.04704125752 
0.742459654132 
0.688791408009 
1.24381469205 
1.17748834724 
0.369058618941 
-0.795541031351 
-0.662220444601 
0.453641472775 
0.599353838077 
-0.147894156451 
-0.530287601663 
-0.984649083341 
-0.74967131577 
-1.38833022435 
-1.9151824213 
-0.992133909926 
-0.137057045266 
0.462865890993 
-0.0493851194688 
0.0702833966699 
-0.0501663454313 
0.152214861792 
0.501439649339 
0.661089744213 
0.0420010516191 
-0.00393942984178 
0.0260952228649 
0.647874453298 
0.742999035447 
0.152982888012 
-0.417521837192 
-0.320011140315 
-0.400444265461 
-0.552592844416 
-0.996349632818 
-2.04904508305 
-1.94307312858 
-0.589826203823 
0.26848154862 
0.228330818686 
-0.24795853513 
0.528712645695 
0.836953953095 
0.853512324306 
1.2886846651 
1.13073275873 
0.662151274683 
-0.366201153382 
-0.650107396251 
0.0115208700309 
0.434124456147 
0.743264813153 
1.52867847563 
1.41193723156 
0.647155081018 
-0.463562707197 
-0.670124917032 
-0.0289377475276 
0.59956856557 
0.196804323928 
-0.113958714746 
-0.00929714046484 
-0.590186049946 
-1.46390194079 
-1.81924155613 
-1.74452613188 
-0.70511538577 
-0.204798511491 
-0.142588303109 
-0.0812311808018 
0.019279351203 
-0.0576731030886 
0.63047944503 
0.860265485295 
0.610287205154 
0.0968312503901 
0.104981849603 
-0.303170885238 
-0.285793490956 
-1.11584673753 
-0.932384500432 
-0.0762615698737 
-0.783368198744 
-1.1185453217 
-1.44291733902 
-2.18643706847 
-1.33137609884 
-0.125246282247 
0.214344630946 
0.551651890625 
0.455213595837 
0.512367112913 
0.629714870992 
0.890341501958 
1.19842700117 
1.26489757037 
0.836658905216 
-0.568150971002 
-0.780838032413 
-0.214364736234 
0.729052471482 
0.885479650169 
1.40509667371 
0.833808608078 
-0.293948588125 
-0.291001955273 
-0.201226059436 
-0.808583341876 
0.120704346339 
0.5505567958 
0.0519040341989 
-0.0973901465622 
-0.694781055807 
-1.14841146337 
-1.18433397637 
-1.62116326277 
-1.11431694905 
-0.348901033063 
0.627412079147 
0.753621063102 
0.490741393305 
0.535457137823 
1.08547610726 
1.11557385052 
0.606954073327 
-0.409153324171 
-0.662067251651 
-1.327699632 
-0.89961573686 
-1.30032584191 
-1.15903853654 
-0.174923452419 
-0.48516663645 
-1.00802366749 
-1.52460430462 
-1.77520790128 
-0.312804574397 
0.72080378995 
0.437162022728 
0.402860565089 
0.316273906683 
-0.252798893995 
-0.306591617439 
1.16870135646 
2.26641469909 
1.88459365676 
0.935180243569 
0.0881075114922 
-0.4389648175 
-0.265684562068 
0.907141627696 
1.15106175924 
1.00571920732 
-0.18678683623 
-0.849929202036 
-0.867683475248 
-0.660114488525 
-1.23858157359 
-1.12898088512 
-0.829733580083 
-0.618144859317 
-0.0574525541093 
0.504902869431 
0.875518237864 
-0.102645360524 
-0.252632876193 
-0.191962651129 
-0.800776476073 
-0.0704132773669 
0.593335080533 
0.136656249153 
0.0312245812667 
0.124759454583 
0.645062492513 
0.486676039989 
-0.763332794391 
-1.18733819898 
-1.72568467331 
-0.355784693572 
-0.285626633047 
-0.214920557049 
-0.0508910989342 
-0.527675261123 
-0.545533585841 
-1.73408953685 
-1.54969814156 
-0.359998262781 
0.567539127368 
0.512429848555 
0.754843280934 
0.612423922913 
-0.447611458718 
-0.65780169867 
0.460996697623 
1.55765595598 
1.2508913635 
0.772714728793 
-0.0599839013721 
-0.467356194737 
0.180578537719 
0.565786931219 
0.426300613782 
-0.366280157817 
-1.03273107412 
-1.84811613597 
-1.96633363637 
-1.63590414869 
-1.84165307937 
-1.85773038312 
-1.98782145812 
-1.13770337651 
0.0405140508875 
0.563246890758 
0.786953122741 
0.456892696064 
0.142224364747 
0.0779975337204 
-0.834722547485 
-1.11240905534 
-0.15650934127 
-0.0626107572641 
-0.530409284933 
-0.53804113218 
-0.939721374746 
-0.477218973174 
-0.163668833632 
-0.590082532593 
-1.13111784391 
-0.404972333716 
0.0615112105455 
0.38351424758 
0.0816139731943 
-0.832187497796 
-1.08893579753 
-1.64347335283 
-1.08253618742 
-0.394931972847 
0.174368805929 
0.376414501308 
0.18148289752 
-0.353727865778 
-0.611291640766 
-0.636787558497 
-0.318850021273 
0.38489557714 
0.836918347449 
0.468079379519 
-0.0596698627853 
-0.0518001091598 
0.44218216203 
-0.0166553209072 
-0.547469191698 
-0.843820529628 
-1.225953917 
-1.61877156214 
-1.30670289748 
-1.2630998291 
-1.50418875043 
-1.710747294 
-1.75611525082 
-1.63954187243 
-0.317427668903 
0.903617114213 
1.05288997561 
0.620337047977 
-0.104737109376 
0.174933197801 
-0.201696290387 
-0.499864818298 
-0.338653668765 
-0.400466432455 
-0.722942364395 
-0.66859011503 
-1.13164845411 
-1.16037268141 
-0.956943195068 
-1.39861807303 
-0.114384155749 
0.0471896077194 
-0.134354459776 
-0.00855477902526 
-0.531785415583 
-1.35947198492 
-1.02653132115 
-0.594511250218 
-0.754136077561 
-1.18182403301 
-0.389128496792 
-0.301452667905 
-0.217514030628 
-1.03218099111 
-1.21004894073 
-0.620249047758 
-0.433073610369 
-0.514276563688 
0.983197050596 
0.752024012022 
0.0637871081199 
-0.293594426183 
0.824291206635 
0.830257099878 
-0.301642014002 
-1.01523476564 
-1.1518111267 
-1.59282431027 
-1.26774343237 
-1.20982421792 
-0.79692271366 
0.0457862121793 
-0.380473991896 
-1.16017763932 
-0.1163781853 
0.844385735153 
1.17983287131 
0.59400427945 
-0.386752395382 
-0.110799905251 
0.176930615531 
-0.300954695262 
-0.0832223785284 
-0.332994488063 
-0.767768790342 
-0.797828865757 
-0.503569895798 
-0.889589804197 
-1.88601330223 
-1.89406380665 
0.161389220105 
-0.206830091044 
-0.769855226426 
-0.890297756406 
-1.64189881559 
-2.28339058628 
-1.20525320534 
-0.476055075433 
-0.368567491521 
-1.35134206973 
-1.16864157386 
-0.932286082945 
-0.456659503144 
-0.525648849929 
-0.559552788263 
-0.289077005593 
-0.416703025437 
-0.357017421164 
1.03626319154 
0.856273373381 
0.256526738329 
0.714218192231 
2.00665485606 
1.46825395568 
0.0494816374977 
-0.415919482058 
-0.810845651412 
-1.02100865757 
-0.704933308263 
-0.64042075896 
-0.318595217025 
0.463183827901 
0.329065168945 
-0.441719885343 
-0.169469922021 
1.12049558399 
1.7624301856 
1.17433268951 
0.0110604371019 
-0.572870681553 
-0.23138792425 
-0.133756532955 
-0.201594914977 
0.541521245207 
0.445543079425 
-0.823092539798 
-0.186133628013 
-0.723905110161 
-1.09126505525 
-1.49997028618 
-0.942954593595 
-0.835043352638 
-1.58993715572 
-1.19269998475 
-1.61021290753 
-1.685762948 
-1.12700008316 
0.0136060297183 
0.228926676639 
-0.644031764468 
-1.27786238878 
-1.32707318884 
-1.19556739038 
-0.697439284826 
0.0837643217404 
0.0501797760352 
-0.471415947479 
-0.433907220847 
0.936055805122 
1.17862018334 
1.08753403435 
1.33314188976 
1.44436345494 
1.44556966171 
0.433751162504 
-0.022713103212 
-0.339495824287 
-0.0848102320999 
-0.181219110534 
-0.06420074933 
-0.444162379396 
-0.0132378172189 
0.0579585165815 
0.478290915185 
0.325409442386 
1.08288514442 
2.30801940448 
2.08406560009 
1.06174260063 
0.0364019116728 
-0.733545234893 
-0.370885431633 
-0.382429466934 
0.150699397211 
0.410004219757 
-0.0192322021981 
0.15360583678 
-0.225682584921 
-0.564870488575 
-0.866531108648 
-0.810171020712 
-0.548796492171 
-0.943479412567 
-0.320097750268 
-0.746416681258 
-0.930549119378 
-0.360851828779 
0.505603761617 
0.783568849312 
0.340970079655 
-0.0145786828347 
-0.498511598445 
-0.739484830787 
-0.616589009244 
-0.522089337684 
-0.774502351192 
-1.39495641094 
-1.11165467192 
0.399818409352 
1.36448970965 
1.58199204464 
1.61655404154 
1.20031011494 
1.16573916322 
0.665730868789 
0.0575713936253 
-0.0708710697354 
-0.0997308220812 
-0.153809765972 
0.181848308889 
0.220792215782 
-0.468249451648 
0.170926813041 
0.544913536108 
0.227585046901 
0.146650051873 
1.13472540022 
1.68175472622 
1.29067024824 
-0.226999143877 
-1.07386420379 
-1.22832261635 
-1.23853032629 
-0.616578082179 
-0.300624017366 
-0.0953649516588 
0.475444397285 
0.598001511332 
0.310901258286 
0.169370936664 
-0.956393967798 
-0.573341372054 
-0.438714157688 
-0.21730364249 
-0.0901242379744 
0.043774665826 
0.214153138958 
0.00857674285424 
0.392497717258 
0.837086489213 
0.202999243991 
-0.398009251477 
-0.6543587705 
-0.523454504663 
-0.443347415377 
-1.07706203049 
-2.02384115789 
-1.34096951554 
0.226522556476 
0.78527430694 
1.0763053704 
0.620286378123 
0.528057084427 
0.645026053857 
0.525461474112 
0.725815011326 
0.990986780036 
0.590296216261 
0.0717702504989 
1.27349778042 
1.09372982713 
0.0145324043121 
0.213944714497 
0.588744518338 
0.279830669258 
-0.596094760416 
-0.179323759868 
0.599320132706 
0.637186068342 
-0.396573390714 
-0.646140907867 
-1.24004921642 
-1.53314100532 
-0.7358397147 
-0.587226877329 
-0.987109938784 
-0.377032021649 
0.525727166338 
1.15960324018 
0.791648027693 
-1.28331003341 
-1.32289091362 
-1.19966989157 
-0.560042615499 
0.378302566296 
0.733894869126 
0.433545486553 
-0.260303522209 
-0.281459323111 
0.355710172292 
0.0157755408343 
-0.976054402308 
-0.649500196701 
-0.825430611328 
-0.82402543164 
-1.20686172408 
-1.34842246833 
-0.764653480788 
-0.296725260469 
-0.42537093315 
-0.188967953658 
-0.276930734422 
-0.198186683494 
-0.0472213463604 
0.137846533029 
0.974208815618 
2.05818726325 
1.93375856373 
1.31533526709 
1.45367388276 
0.723589634076 
-0.162281855822 
0.284009472534 
0.182375445875 
0.164921400704 
-0.152208700368 
-0.112051900721 
0.186243178402 
0.211744977755 
-0.0617693278122 
-0.338368751859 
-0.282255547174 
-0.500679982235 
-0.563949212988 
-0.691776558024 
-1.24646283498 
-0.234265577794 
0.404249741203 
1.27999787778 
1.70274838502 
-1.24161788264 
-1.63498034508 
-1.80353506043 
-1.80790025785 
-0.286197562905 
0.588774092901 
0.704272266619 
0.417718012067 
-0.375838554756 
-0.08333992765 
-0.40285109473 
-0.52281928255 
-0.190446756889 
-0.777770950405 
-1.23746513176 
-1.22383066573 
-0.662206460868 
-0.0587063849663 
-0.172086011266 
-0.628422824232 
-0.728479197267 
-0.811864885212 
-1.31762765102 
-1.03271600954 
-0.427205710331 
1.29616083248 
2.72443372568 
2.00676114853 
1.87091737934 
1.23277409003 
-0.00311495674508 
-0.0179031155843 
0.351841825957 
0.509386362653 
0.303933879551 
0.213591754611 
-0.139122750787 
-0.309227836861 
-0.624712794796 
-0.79915791508 
-0.315086792661 
0.690255879988 
0.763795209101 
-0.0681401970321 
-0.726795281028 
-0.539201505331 
0.313383257153 
0.787102823796 
0.973519665345 
1.29879984988 
-1.18611097981 
-1.86615313107 
-1.72529471143 
-1.26181107749 
-0.365544370278 
0.417841366951 
0.685988798902 
-0.198067481393 
-1.27627680734 
-1.5802020991 
-0.861712348222 
-0.562874276381 
0.263783503563 
0.0867845166816 
-1.15754994065 
-1.32801306389 
-0.560427741865 
-0.342048826859 
-0.58165987636 
-1.0675845448 
-0.994516819878 
-1.64910671437 
-2.416832538 
-1.65572464791 
-0.646522188347 
0.887038621659 
1.89014568607 
1.71886509581 
1.56443501571 
1.20854090893 
0.603938052871 
0.261822874373 
0.149315149798 
0.514524791401 
-0.0790321343289 
-0.383107987688 
-0.683247788911 
-0.883405831993 
-1.03879413473 
-1.41430917318 
-0.47422432151 
0.314498662016 
0.706764014339 
0.156088085828 
-0.300391187577 
-0.562463936959 
-0.0385602760339 
0.494484950082 
1.15552236474 
0.60662760999 
1 
1 
1 
1 
1 
1 
1 
1 
1 
1 
1 
1 
1 
1 
1 
1 
1 
1 
1 
1 
1 
1 
1 
1 
1 
1 
1 
1 
1 
1 
1 
1 
1 
1 
1 
1 
1 
1 
1 
1 
1 
1 
1 
1 
1 
1 
1 
1 
1 
1 
1 
1 
1 
1 
1 
1 
1 
1 
1 
1 
1 
1 
1 
1 
1 
1 
1 
1 
1 
1 
1 
1 
1 
1 
1 
1 
1 
1 
1 
1 
1 
1 
1 
1 
1 
1 
1 
1 
1 
1 
1 
1 
1 
1 
1 
1 
1 
1 
1 
1 
